EAB 703-1002: Biostatistical Methods for the Health Sciences – Data Transformation
…
View() displays the data in a more interactive setting on R Studio.

Importing Data Frames from packages

Some packages have pre-loaded data sets. For example, the package nycflights13 has multiple data sets such as flights. This dataset contains all 336,776 flights that departed from New York City in 2013. These could be accessed after installing the package.

Method 1
Method 2

We can access any function/file in a package using the :: argument. For example, if we want to access flights in the nycflights13 package without loading the package, we can use the following syntax:

nycflights13::flights

# A tibble: 336,776 × 19
    year month   day dep_time sched_dep_time dep_delay arr_time sched_arr_time
   <int> <int> <int>    <int>          <int>     <dbl>    <int>          <int>
 1  2013     1     1      517            515         2      830            819
 2  2013     1     1      533            529         4      850            830
 3  2013     1     1      542            540         2      923            850
 4  2013     1     1      544            545        -1     1004           1022
 5  2013     1     1      554            600        -6      812            837
 6  2013     1     1      554            558        -4      740            728
 7  2013     1     1      555            600        -5      913            854
 8  2013     1     1      557            600        -3      709            723
 9  2013     1     1      557            600        -3      838            846
10  2013     1     1      558            600        -2      753            745
# ℹ 336,766 more rows
# ℹ 11 more variables: arr_delay <dbl>, carrier <chr>, flight <int>,
#   tailnum <chr>, origin <chr>, dest <chr>, air_time <dbl>, distance <dbl>,
#   hour <dbl>, minute <dbl>, time_hour <dttm>

We can load nycflights13 first, which gives us access to the flights data set.

library(nycflights13)
flights

# A tibble: 336,776 × 19
    year month   day dep_time sched_dep_time dep_delay arr_time sched_arr_time
   <int> <int> <int>    <int>          <int>     <dbl>    <int>          <int>
 1  2013     1     1      517            515         2      830            819
 2  2013     1     1      533            529         4      850            830
 3  2013     1     1      542            540         2      923            850
 4  2013     1     1      544            545        -1     1004           1022
 5  2013     1     1      554            600        -6      812            837
 6  2013     1     1      554            558        -4      740            728
 7  2013     1     1      555            600        -5      913            854
 8  2013     1     1      557            600        -3      709            723
 9  2013     1     1      557            600        -3      838            846
10  2013     1     1      558            600        -2      753            745
# ℹ 336,766 more rows
# ℹ 11 more variables: arr_delay <dbl>, carrier <chr>, flight <int>,
#   tailnum <chr>, origin <chr>, dest <chr>, air_time <dbl>, distance <dbl>,
#   hour <dbl>, minute <dbl>, time_hour <dttm>
…
Suppose we want to find the flights that departed more than 120 minutes (two hours) late:

library(nycflights13)
names(flights)

 [1] "year"           "month"          "day"            "dep_time"      
 [5] "sched_dep_time" "dep_delay"      "arr_time"       "sched_arr_time"
 [9] "arr_delay"      "carrier"        "flight"         "tailnum"       
[13] "origin"         "dest"           "air_time"       "distance"      
[17] "hour"           "minute"         "time_hour"     

 filter(flights, dep_delay > 120)

# A tibble: 9,723 × 19
    year month   day dep_time sched_dep_time dep_delay arr_time sched_arr_time
   <int> <int> <int>    <int>          <int>     <dbl>    <int>          <int>
 1  2013     1     1      848           1835       853     1001           1950
 2  2013     1     1      957            733       144     1056            853
 3  2013     1     1     1114            900       134     1447           1222
 4  2013     1     1     1540           1338       122     2020           1825
 5  2013     1     1     1815           1325       290     2120           1542
 6  2013     1     1     1842           1422       260     1958           1535
 7  2013     1     1     1856           1645       131     2212           2005
 8  2013     1     1     1934           1725       129     2126           1855
 9  2013     1     1     1938           1703       155     2109           1823
10  2013     1     1     1942           1705       157     2124           1830
# ℹ 9,713 more rows
# ℹ 11 more variables: arr_delay <dbl>, carrier <chr>, flight <int>,
#   tailnum <chr>, origin <chr>, dest <chr>, air_time <dbl>, distance <dbl>,
#   hour <dbl>, minute <dbl>, time_hour <dttm>

Suppose we want to examine the flights by carrier AA (American Airlines).

 filter(flights, carrier=="AA")

# A tibble: 32,729 × 19
    year month   day dep_time sched_dep_time dep_delay arr_time sched_arr_time
   <int> <int> <int>    <int>          <int>     <dbl>    <int>          <int>
 1  2013     1     1      542            540         2      923            850
 2  2013     1     1      558            600        -2      753            745
 3  2013     1     1      559            600        -1      941            910
 4  2013     1     1      606            610        -4      858            910
 5  2013     1     1      623            610        13      920            915
 6  2013     1     1      628            630        -2     1137           1140
 7  2013     1     1      629            630        -1      824            810
 8  2013     1     1      635            635         0     1028            940
 9  2013     1     1      656            700        -4      854            850
10  2013     1     1      656            659        -3      949            959
# ℹ 32,719 more rows
# ℹ 11 more variables: arr_delay <dbl>, carrier <chr>, flight <int>,
#   tailnum <chr>, origin <chr>, dest <chr>, air_time <dbl>, distance <dbl>,
#   hour <dbl>, minute <dbl>, time_hour <dttm>

Suppose we want to examine the flights by carrier AA (American Airlines) and are delayed by more than 120 minutes.

 filter(flights, carrier=="AA" &  dep_delay > 120)

# A tibble: 720 × 19
    year month   day dep_time sched_dep_time dep_delay arr_time sched_arr_time
   <int> <int> <int>    <int>          <int>     <dbl>    <int>          <int>
 1  2013     1     1     1856           1645       131     2212           2005
 2  2013     1     1     2205           1720       285       46           2040
 3  2013     1     2     1607           1030       337     2003           1355
 4  2013     1     2     1751           1450       181     2041           1755
 5  2013     1     3      854            630       144     1057            810
 6  2013     1     3      909            700       129     1103            850
 7  2013     1     3     1758           1550       128     2240           2050
 8  2013     1     3     1821           1530       171     2131           1910
 9  2013     1     4     1305           1030       155     1452           1210
10  2013     1     4     1917           1700       137     2135           1950
# ℹ 710 more rows
# ℹ 11 more variables: arr_delay <dbl>, carrier <chr>, flight <int>,
#   tailnum <chr>, origin <chr>, dest <chr>, air_time <dbl>, distance <dbl>,
#   hour <dbl>, minute <dbl>, time_hour <dttm>

Suppose we want to examine the flights by carrier AA (American Airlines) OR flights that took off from the JFK airport.

filter(flights, carrier=="AA" |  origin=="JFK")

# A tibble: 130,225 × 19
    year month   day dep_time sched_dep_time dep_delay arr_time sched_arr_time
   <int> <int> <int>    <int>          <int>     <dbl>    <int>          <int>
 1  2013     1     1      542            540         2      923            850
 2  2013     1     1      544            545        -1     1004           1022
 3  2013     1     1      557            600        -3      838            846
 4  2013     1     1      558            600        -2      753            745
 5  2013     1     1      558            600        -2      849            851
 6  2013     1     1      558            600        -2      853            856
 7  2013     1     1      558            600        -2      924            917
 8  2013     1     1      559            600        -1      941            910
 9  2013     1     1      559            559         0      702            706
10  2013     1     1      606            610        -4      858            910
# ℹ 130,215 more rows
# ℹ 11 more variables: arr_delay <dbl>, carrier <chr>, flight <int>,
#   tailnum <chr>, origin <chr>, dest <chr>, air_time <dbl>, distance <dbl>,
#   hour <dbl>, minute <dbl>, time_hour <dttm>
…
We can use both filter() and arrange() sequentially. Suppose we want to filter out delay times higher than 120 minutes then sort the flights in increasing order.

filterfirst <- filter(flights,dep_delay > 120)
arrange(filterfirst,dep_delay)

# A tibble: 9,723 × 19
    year month   day dep_time sched_dep_time dep_delay arr_time sched_arr_time
   <int> <int> <int>    <int>          <int>     <dbl>    <int>          <int>
 1  2013     1     1     2009           1808       121     2145           1942
 2  2013     1    16     1121            920       121     1501           1245
 3  2013     1    16     1419           1218       121     1623           1415
 4  2013     1    16     2101           1900       121     2252           2057
 5  2013     1    16     2141           1940       121       35           2249
 6  2013     1    16     2256           2055       121      103           2250
 7  2013     1    17      801            600       121     1002            801
 8  2013     1    19     1930           1729       121     2229           2049
 9  2013     1    20     2135           1934       121       33           2219
10  2013     1    22     2201           2000       121     2330           2147
# ℹ 9,713 more rows
# ℹ 11 more variables: arr_delay <dbl>, carrier <chr>, flight <int>,
#   tailnum <chr>, origin <chr>, dest <chr>, air_time <dbl>, distance <dbl>,
#   hour <dbl>, minute <dbl>, time_hour <dttm>
…
Example

Example 1
Example 2

Suppose we want to determine the specific flights (origin, destination) in the flights data set.

distinct(flights,origin,dest)
1distinct(flights,origin,dest,.keep_all=T)

1

This row keeps the other variables in the data set.

# A tibble: 224 × 2
   origin dest 
   <chr>  <chr>
 1 EWR    IAH  
 2 LGA    IAH  
 3 JFK    MIA  
 4 JFK    BQN  
 5 LGA    ATL  
 6 EWR    ORD  
 7 EWR    FLL  
 8 LGA    IAD  
 9 JFK    MCO  
10 LGA    ORD  
# ℹ 214 more rows
# A tibble: 224 × 19
    year month   day dep_time sched_dep_time dep_delay arr_time sched_arr_time
   <int> <int> <int>    <int>          <int>     <dbl>    <int>          <int>
 1  2013     1     1      517            515         2      830            819
 2  2013     1     1      533            529         4      850            830
 3  2013     1     1      542            540         2      923            850
 4  2013     1     1      544            545        -1     1004           1022
 5  2013     1     1      554            600        -6      812            837
 6  2013     1     1      554            558        -4      740            728
 7  2013     1     1      555            600        -5      913            854
 8  2013     1     1      557            600        -3      709            723
 9  2013     1     1      557            600        -3      838            846
10  2013     1     1      558            600        -2      753            745
# ℹ 214 more rows
# ℹ 11 more variables: arr_delay <dbl>, carrier <chr>, flight <int>,
#   tailnum <chr>, origin <chr>, dest <chr>, air_time <dbl>, distance <dbl>,
#   hour <dbl>, minute <dbl>, time_hour <dttm>

We can create a data set that includes the unique trips serviced by American Airlines.

unique_AA<-  filter(flights,carrier=="AA")
unique_dest_AA <- distinct(unique_AA,origin, dest)
unique_dest_AA

# A tibble: 25 × 2
   origin dest 
   <chr>  <chr>
 1 JFK    MIA  
 2 LGA    ORD  
 3 LGA    DFW  
 4 EWR    MIA  
 5 LGA    MIA  
 6 JFK    SJU  
 7 JFK    MCO  
 8 JFK    FLL  
 9 EWR    DFW  
10 JFK    LAX  
# ℹ 15 more rows

We can use count() to count the number of distinct combinations of columns. To count the number of unique American Airlines (carrier==“AA”) flight destinations,

count(unique_AA,origin,dest,sort=T)

# A tibble: 25 × 3
   origin dest      n
   <chr>  <chr> <int>
 1 LGA    ORD    5694
 2 LGA    DFW    4836
 3 LGA    MIA    3945
 4 JFK    LAX    3217
 5 JFK    MIA    2221
 6 EWR    DFW    2054
 7 JFK    BOS    1455
 8 JFK    SFO    1422
 9 JFK    SJU    1099
10 EWR    MIA    1068
# ℹ 15 more rows
…
Piping |>

Importance of Piping in the tidyverse

Suppose we want to perform multiple sequential filtering, counting, and sorting processes for our data.

As an example, what if we want to create a data frame that includes all delayed flights (dep_delay > 0) coming out of the JFK airport arranged by the time of delay in descending order?

Current Methods
Piping

filtered <- filter(flights,dep_delay>0 & origin=="JFK")
arrange(filtered,desc(dep_delay))

# A tibble: 42,031 × 19
    year month   day dep_time sched_dep_time dep_delay arr_time sched_arr_time
   <int> <int> <int>    <int>          <int>     <dbl>    <int>          <int>
 1  2013     1     9      641            900      1301     1242           1530
 2  2013     6    15     1432           1935      1137     1607           2120
 3  2013     9    20     1139           1845      1014     1457           2210
 4  2013     7    22      845           1600      1005     1044           1815
 5  2013     4    10     1100           1900       960     1342           2211
 6  2013     6    27      959           1900       899     1236           2226
 7  2013     1     1      848           1835       853     1001           1950
 8  2013     5    19      713           1700       853     1007           1955
 9  2013    12    14      830           1845       825     1210           2154
10  2013     3    18     1020           2100       800     1336             32
# ℹ 42,021 more rows
# ℹ 11 more variables: arr_delay <dbl>, carrier <chr>, flight <int>,
#   tailnum <chr>, origin <chr>, dest <chr>, air_time <dbl>, distance <dbl>,
#   hour <dbl>, minute <dbl>, time_hour <dttm>

OR

arrange(filter(flights,dep_delay>0 & origin=="JFK"),desc(dep_delay))

# A tibble: 42,031 × 19
    year month   day dep_time sched_dep_time dep_delay arr_time sched_arr_time
   <int> <int> <int>    <int>          <int>     <dbl>    <int>          <int>
 1  2013     1     9      641            900      1301     1242           1530
 2  2013     6    15     1432           1935      1137     1607           2120
 3  2013     9    20     1139           1845      1014     1457           2210
 4  2013     7    22      845           1600      1005     1044           1815
 5  2013     4    10     1100           1900       960     1342           2211
 6  2013     6    27      959           1900       899     1236           2226
 7  2013     1     1      848           1835       853     1001           1950
 8  2013     5    19      713           1700       853     1007           1955
 9  2013    12    14      830           1845       825     1210           2154
10  2013     3    18     1020           2100       800     1336             32
# ℹ 42,021 more rows
# ℹ 11 more variables: arr_delay <dbl>, carrier <chr>, flight <int>,
#   tailnum <chr>, origin <chr>, dest <chr>, air_time <dbl>, distance <dbl>,
#   hour <dbl>, minute <dbl>, time_hour <dttm>

flights |> 
  filter(dep_delay>0 & origin=="JFK") |> 
  arrange(desc(dep_delay))

# A tibble: 42,031 × 19
    year month   day dep_time sched_dep_time dep_delay arr_time sched_arr_time
   <int> <int> <int>    <int>          <int>     <dbl>    <int>          <int>
 1  2013     1     9      641            900      1301     1242           1530
 2  2013     6    15     1432           1935      1137     1607           2120
 3  2013     9    20     1139           1845      1014     1457           2210
 4  2013     7    22      845           1600      1005     1044           1815
 5  2013     4    10     1100           1900       960     1342           2211
 6  2013     6    27      959           1900       899     1236           2226
 7  2013     1     1      848           1835       853     1001           1950
 8  2013     5    19      713           1700       853     1007           1955
 9  2013    12    14      830           1845       825     1210           2154
10  2013     3    18     1020           2100       800     1336             32
# ℹ 42,021 more rows
# ℹ 11 more variables: arr_delay <dbl>, carrier <chr>, flight <int>,
#   tailnum <chr>, origin <chr>, dest <chr>, air_time <dbl>, distance <dbl>,
#   hour <dbl>, minute <dbl>, time_hour <dttm>
…
We will discuss three different column specific operations: rename(), select(), mutate()

rename()

rename() changes the column names and keeps all existing variables.

rename(data,[NEWNAME = OLDNAME])

Examples

flights |> 
  rename(tail_number = tailnum)

# A tibble: 336,776 × 19
    year month   day dep_time sched_dep_time dep_delay arr_time sched_arr_time
   <int> <int> <int>    <int>          <int>     <dbl>    <int>          <int>
 1  2013     1     1      517            515         2      830            819
 2  2013     1     1      533            529         4      850            830
 3  2013     1     1      542            540         2      923            850
 4  2013     1     1      544            545        -1     1004           1022
 5  2013     1     1      554            600        -6      812            837
 6  2013     1     1      554            558        -4      740            728
 7  2013     1     1      555            600        -5      913            854
 8  2013     1     1      557            600        -3      709            723
 9  2013     1     1      557            600        -3      838            846
10  2013     1     1      558            600        -2      753            745
# ℹ 336,766 more rows
# ℹ 11 more variables: arr_delay <dbl>, carrier <chr>, flight <int>,
#   tail_number <chr>, origin <chr>, dest <chr>, air_time <dbl>,
#   distance <dbl>, hour <dbl>, minute <dbl>, time_hour <dttm>

flights |> 
  rename(destination_airport = dest,
         origin_airport = origin)

# A tibble: 336,776 × 19
    year month   day dep_time sched_dep_time dep_delay arr_time sched_arr_time
   <int> <int> <int>    <int>          <int>     <dbl>    <int>          <int>
 1  2013     1     1      517            515         2      830            819
 2  2013     1     1      533            529         4      850            830
 3  2013     1     1      542            540         2      923            850
 4  2013     1     1      544            545        -1     1004           1022
 5  2013     1     1      554            600        -6      812            837
 6  2013     1     1      554            558        -4      740            728
 7  2013     1     1      555            600        -5      913            854
 8  2013     1     1      557            600        -3      709            723
 9  2013     1     1      557            600        -3      838            846
10  2013     1     1      558            600        -2      753            745
# ℹ 336,766 more rows
# ℹ 11 more variables: arr_delay <dbl>, carrier <chr>, flight <int>,
#   tailnum <chr>, origin_airport <chr>, destination_airport <chr>,
#   air_time <dbl>, distance <dbl>, hour <dbl>, minute <dbl>, time_hour <dttm>
…
